                                                    ┈▕▔▔╲╱▔▔▔╲╱▔▔▏
                                                    ┈┈╲＿╱╰╮┈╭╯╲＿╱
                                                    ┈┈┈╱▏▉╮┈╭▉▕
                                                    ┈╱▔╰╲╰╰┊╯╯╱╲
                                                    ┈▏╰╰▕╰╰┳╯╯▏╯▏
                                                    ┈▏╰╰╰╲╰┻╯╱╯╯▏
                                                    ┈▏╰╰╰╰▔▔▔╯╯╯▏
                                                    ┈╲╰╰╭╮╯╯╯╭╮╱
                                                    ┈┈┃┳┫┣━┳┳┫┃
                                                    ┈┈┃┃┃┃┈┃┃┃┃
                                                    ┈┈┗┛┗┛┈┗┛┗┛
   ____              _          __   __        ___                   ___    ____   ____ ______        ___    ___    ____
  /  _/  ___   ___  (_) ___ _  / /  / /_      |_  |      ____       / _ \  / __/  / __//_  __/       / _ |  / _ \  /  _/
 _/ /   / _ \ (_-< / / / _ `/ / _ \/ __/     / __/      /___/      / , _/ / _/   _\ \   / /         / __ | / ___/ _/ /
/___/  /_//_//___//_/  \_, / /_//_/\__/     /____/                /_/|_| /___/  /___/  /_/         /_/ |_|/_/    /___/
                      /___/